Nomor Kelompok 	: 10 TEK A P2
Anggot		: 1. Fauzan Fatra Prathama 	J3D117094
		  2. Nurul Hanifah Pratiwi	J3D117100
		  3. Muhamad Ghifari		J3D217127
-------------------------------------------------------------------------------------------
1. Buka XAMPP Control.
2. Klik start pada bagian Apache dan Mysql.
3. Buka Browser.
4. Ketik di url localhost/projekBaru
5. Tampilan awal merupakan landingpage dari Sistem Visitor Monitoring
6. Untuk mengisi dan melihat tampilan testimoni dapat login terlebih dahulu pada
   halaman testimoni.
7. masukkan username: (???), dan password: (???)